Single-cell RNAseq analysis with R/Bioconductor - 6 Lab 3: Introduction to R/Bioconductor
…
R

genes <- read_tsv('~/Share/GSM4486714_AXH009_genes.tsv', col_names = c('ID', 'Symbol'))

Rows: 32738 Columns: 2
── Column specification ────────────────────────────────────────────────────────────────────────────────────────────────────────────────────────────────────────────────────────────────────────────────
Delimiter: "\t"
chr (2): ID, Symbol

ℹ Use `spec()` to retrieve the full column specification for this data.
ℹ Specify the column types or set `show_col_types = FALSE` to quiet this message.

genes

# A tibble: 32,738 × 2
   ID              Symbol       
   <chr>           <chr>        
 1 ENSG00000243485 MIR1302-10   
 2 ENSG00000237613 FAM138A      
 3 ENSG00000186092 OR4F5        
 4 ENSG00000238009 RP11-34P13.7 
 5 ENSG00000239945 RP11-34P13.8 
 6 ENSG00000237683 AL627309.1   
 7 ENSG00000239906 RP11-34P13.14
 8 ENSG00000241599 RP11-34P13.9 
 9 ENSG00000228463 AP006222.2   
10 ENSG00000237094 RP4-669L17.10
# ℹ 32,728 more rows
…
filter(genes, Symbol == 'CCDC67')

# A tibble: 1 × 2
  ID              Symbol
  <chr>           <chr> 
1 ENSG00000165325 CCDC67

filter(genes, grepl('^CCDC.*', Symbol))

# A tibble: 159 × 2
   ID              Symbol  
   <chr>           <chr>   
 1 ENSG00000162592 CCDC27  
 2 ENSG00000160050 CCDC28B 
 3 ENSG00000186409 CCDC30  
 4 ENSG00000177868 CCDC23  
 5 ENSG00000159214 CCDC24  
 6 ENSG00000236624 CCDC163P
 7 ENSG00000159588 CCDC17  
 8 ENSG00000122483 CCDC18  
 9 ENSG00000213085 CCDC19  
10 ENSG00000117477 CCDC181 
# ℹ 149 more rows
…
select(genes, 1)

# A tibble: 32,738 × 1
   ID             
   <chr>          
 1 ENSG00000243485
 2 ENSG00000237613
 3 ENSG00000186092
 4 ENSG00000238009
 5 ENSG00000239945
 6 ENSG00000237683
 7 ENSG00000239906
 8 ENSG00000241599
 9 ENSG00000228463
10 ENSG00000237094
# ℹ 32,728 more rows

select(genes, ID)

# A tibble: 32,738 × 1
   ID             
   <chr>          
 1 ENSG00000243485
 2 ENSG00000237613
 3 ENSG00000186092
 4 ENSG00000238009
 5 ENSG00000239945
 6 ENSG00000237683
 7 ENSG00000239906
 8 ENSG00000241599
 9 ENSG00000228463
10 ENSG00000237094
# ℹ 32,728 more rows

select(genes, matches('Sym.*'))

# A tibble: 32,738 × 1
   Symbol       
   <chr>        
 1 MIR1302-10   
 2 FAM138A      
 3 OR4F5        
 4 RP11-34P13.7 
 5 RP11-34P13.8 
 6 AL627309.1   
 7 RP11-34P13.14
 8 RP11-34P13.9 
 9 AP006222.2   
10 RP4-669L17.10
# ℹ 32,728 more rows

Columns can also be quickly added/modified using the mutate verb.

R

mutate(genes, chr = sample(1:22, n(), replace = TRUE))

# A tibble: 32,738 × 3
   ID              Symbol          chr
   <chr>           <chr>         <int>
 1 ENSG00000243485 MIR1302-10       15
 2 ENSG00000237613 FAM138A          18
 3 ENSG00000186092 OR4F5            21
 4 ENSG00000238009 RP11-34P13.7      1
 5 ENSG00000239945 RP11-34P13.8      9
 6 ENSG00000237683 AL627309.1       20
 7 ENSG00000239906 RP11-34P13.14    15
 8 ENSG00000241599 RP11-34P13.9     15
 9 ENSG00000228463 AP006222.2        4
10 ENSG00000237094 RP4-669L17.10    10
# ℹ 32,728 more rows
…
