Single-cell RNAseq analysis with R/Bioconductor - 7 Lab 4 - Single-cell RNA-seq data wrangling
…
To create a SingleCellExperiment object, we need to provide the following:

colData: a data frame (or tibble) with columns corresponding to cell metadata.

rowData: a data frame (or tibble) with columns corresponding to gene metadata.

assays: a list of matrices, each matrix corresponding to a different assay. The first matrix is typically the counts matrix.

R

cd <- tibble(idx = paste0('cell', 1:100))  ## `cd` stands for colData
cd

# A tibble: 100 × 1
   idx   
   <chr> 
 1 cell1 
 2 cell2 
 3 cell3 
 4 cell4 
 5 cell5 
 6 cell6 
 7 cell7 
 8 cell8 
 9 cell9 
10 cell10
# ℹ 90 more rows
…
R

genes <- read_tsv('~/Share/GSE114802_org4_genes.tsv.gz', col_names = FALSE)

Rows: 33694 Columns: 2
── Column specification ────────────────────────────────────────────────────────────────────────────────────────────────────────────────────────────────────────────────────────────────────────────────
Delimiter: "\t"
chr (2): X1, X2

ℹ Use `spec()` to retrieve the full column specification for this data.
ℹ Specify the column types or set `show_col_types = FALSE` to quiet this message.

genes

# A tibble: 33,694 × 2
   X1              X2           
   <chr>           <chr>        
 1 ENSG00000243485 RP11-34P13.3 
 2 ENSG00000237613 FAM138A      
 3 ENSG00000186092 OR4F5        
 4 ENSG00000238009 RP11-34P13.7 
 5 ENSG00000239945 RP11-34P13.8 
 6 ENSG00000239906 RP11-34P13.14
 7 ENSG00000241599 RP11-34P13.9 
 8 ENSG00000279928 FO538757.3   
 9 ENSG00000279457 FO538757.2   
10 ENSG00000228463 AP006222.2   
# ℹ 33,684 more rows
…
